UpSet Plots in the Tidyverse – Gleb Ebert
…
# expand aircraft–airport combinations to include absence data
dat_absent <- dat_present |>
  expand(airport, aircraft) |>
  anti_join(dat_present, by = join_by("airport", "aircraft")) |>
  mutate(present = 0)

# combine tables into presence/absence data
dat_pa <- bind_rows(dat_present, dat_absent)

# pivot wider
dat_pa_w <- dat_pa |>
  pivot_wider(id_cols = aircraft, names_from = airport, values_from = present)
dat_pa_w

# A tibble: 136 × 4
   aircraft                              EWR   LGA   JFK
   <chr>                               <dbl> <dbl> <dbl>
 1 Boeing 737-824                          1     1     0
 2 Boeing 757-223                          1     1     1
 3 Airbus A320-232                         1     1     1
 4 Boeing 757-232                          1     1     1
 5 Boeing 737-924ER                        1     0     0
 6 Canadair CL-600-2B19                    0     1     1
 7 Boeing 757-224                          1     0     1
 8 Mcdonnell Douglas Aircraft Co MD-88     1     1     1
 9 Boeing 737-832                          1     1     1
10 Airbus A319-114                         1     1     1
# ℹ 126 more rows
…
For example, we can see that 41 aircraft types are only seen at Newark and LaGuardia, but not at JKF. Now let us also create a table that shows which airports are contained in each combination.

# get table with presence/absence of any airport in a particular combination
dat_comb_w <- dat_comb_size |>
  select(combination, all_of(airports)) |>
  pivot_longer(cols = -combination, names_to = "set", values_to = "in_comb") |>
  mutate(set = fct_inorder(as_factor(set)))
dat_comb_w

# A tibble: 21 × 3
   combination set   in_comb
   <fct>       <fct>   <dbl>
 1 111         EWR         1
 2 111         LGA         1
 3 111         JFK         1
 4 110         EWR         1
 5 110         LGA         1
 6 110         JFK         0
 7 101         EWR         1
 8 101         LGA         0
 9 101         JFK         1
10 011         EWR         0
# ℹ 11 more rows
…
